Case Study 3 Sandbox
…
we do this step only once we have all predictions for all models saved to the list like we do above

predsdf <- bind_rows(newpreds, .id = "column_label")

gets MSE for just SVR for now.

predsdf %>% group_by(stock) %>% 
  summarize(
    SVR = mean((na.omit(percent_change_next_weeks_price) - svr)^2)
  )

# A tibble: 30 × 2
   stock    SVR
   <chr>  <dbl>
 1 AA    0.0549
 2 AXP   0.0278
 3 BA    0.0627
 4 BAC   0.0248
 5 CAT   0.172 
 6 CSCO  0.0432
 7 CVX   0.0898
 8 DD    0.0491
 9 DIS   0.0933
10 GE    0.0617
# ℹ 20 more rows
…
performance_metrics <- combined_preds_df %>%
  group_by(stock) %>%
  summarize(
    MSE_LM = mean((percent_change_next_weeks_price - lm_pred)^2, na.rm = TRUE),
    MAE_LM = mean(abs(percent_change_next_weeks_price - lm_pred), na.rm = TRUE),
    MAPE_LM = mean(abs(percent_change_next_weeks_price - lm_pred) * 100 / abs(percent_change_next_weeks_price), na.rm = TRUE),
    
    MSE_SVR = mean((percent_change_next_weeks_price - svr)^2, na.rm = TRUE),
    MAE_SVR = mean(abs(percent_change_next_weeks_price - svr), na.rm = TRUE),
    MAPE_SVR = mean(abs(percent_change_next_weeks_price - svr) * 100 / abs(percent_change_next_weeks_price), na.rm = TRUE)
  )

print(performance_metrics)

# A tibble: 30 × 7
   stock  MSE_LM MAE_LM MAPE_LM MSE_SVR MAE_SVR MAPE_SVR
   <chr>   <dbl>  <dbl>   <dbl>   <dbl>   <dbl>    <dbl>
 1 AA    353.    18.7     5169.  0.0549   0.195     81.1
 2 AXP   281.    16.7     3153.  0.0278   0.131     26.2
 3 BA     10.3    3.09     639.  0.0627   0.221     52.1
 4 BAC   855.    26.0     5966.  0.0248   0.128     27.5
 5 CAT     0.423  0.572    148.  0.172    0.359    100. 
 6 CSCO    1.88   1.25     280.  0.0432   0.180     48.1
 7 CVX     8.46   2.84     593.  0.0898   0.269     68.9
 8 DD     25.7    5.03    1067.  0.0491   0.171     46.0
 9 DIS    88.3    9.29    2074.  0.0933   0.275     70.6
10 GE    120.    10.8     2287.  0.0617   0.232     54.9
# ℹ 20 more rows
…
