Case Study 3 Sandbox
…
we do this step only once we have all predictions for all models saved to the list like we do above

predsdf <- bind_rows(newpreds, .id = "column_label")

gets MSE for just SVR for now.

predsdf %>% group_by(stock) %>% 
  summarize(
    SVR = mean((na.omit(percent_change_next_weeks_price) - svr)^2)
  )

# A tibble: 30 × 2
   stock    SVR
   <chr>  <dbl>
 1 AA    0.0549
 2 AXP   0.0278
 3 BA    0.0627
 4 BAC   0.0248
 5 CAT   0.172 
 6 CSCO  0.0432
 7 CVX   0.0898
 8 DD    0.0491
 9 DIS   0.0933
10 GE    0.0617
# ℹ 20 more rows
…
# Combine all predictions into a single data frame
combined_preds_df <- bind_rows(newpreds, .id = "stock")

# View the combined predictions
print(combined_preds_df)

# A tibble: 390 × 6
   date                stock percent_change_next_weeks…¹   svr lm_pred tree_pred
   <dttm>              <chr>                       <dbl> <dbl>   <dbl>     <dbl>
 1 2011-04-01 00:00:00 AA                         0.656  0.589    17.8     0.754
 2 2011-04-08 00:00:00 AA                         0.0967 0.611    17.7     0.754
 3 2011-04-15 00:00:00 AA                         0.698  0.562    19.5     0.754
 4 2011-04-21 00:00:00 AA                         0.532  0.633    17.3     0.754
 5 2011-04-29 00:00:00 AA                         0.481  0.585    18.3     0.754
 6 2011-05-06 00:00:00 AA                         0.498  0.593    19.0     0.754
 7 2011-05-13 00:00:00 AA                         0.302  0.621    18.0     0.754
 8 2011-05-20 00:00:00 AA                         0.675  0.567    19.7     0.754
 9 2011-05-27 00:00:00 AA                         0.278  0.623    18.0     0.754
10 2011-06-03 00:00:00 AA                         0.318  0.567    20.2     0.754
# ℹ 380 more rows
# ℹ abbreviated name: ¹​percent_change_next_weeks_price
…
    RMSE_SVR = sqrt(mean((percent_change_next_weeks_price - svr)^2, na.rm = TRUE)),
    #MAE_SVR = mean(abs(percent_change_next_weeks_price - svr), na.rm = TRUE),
    #MAPE_SVR = mean(abs(percent_change_next_weeks_price - svr) * 100 / abs(percent_change_next_weeks_price), na.rm = TRUE),
    
    RMSE_Tree = sqrt(mean((percent_change_next_weeks_price - tree_pred)^2, na.rm = TRUE)),
    #MAE_Tree = mean(abs(percent_change_next_weeks_price - tree_pred), na.rm = TRUE),
    #MAPE_Tree = mean(abs(percent_change_next_weeks_price - tree_pred) * 100 / abs(percent_change_next_weeks_price), na.rm = TRUE)
  )

print(performance_metrics)

# A tibble: 30 × 4
   stock RMSE_LM RMSE_SVR RMSE_Tree
   <chr>   <dbl>    <dbl>     <dbl>
 1 AA     18.8      0.234     0.335
 2 AXP    16.8      0.167     0.234
 3 BA      3.21     0.250     0.274
 4 BAC    29.2      0.157     0.330
 5 CAT     0.650    0.415     0.244
 6 CSCO    1.37     0.208     0.305
 7 CVX     2.91     0.300     0.192
 8 DD      5.07     0.222     0.279
 9 DIS     9.40     0.305     0.299
10 GE     11.0      0.248     0.294
# ℹ 20 more rows
…
